{
  "tool": "Kafka CLI",
  "shorthand": "kafc",
  "commands": [
    {
      "command": "zookeeper-server-start",
      "desc": "Start the zookeeper",
      "shortcut": "kafz",
      "code": "zookeeper-server-start.bat C:\\Apps\\kafka_2.13-3.7.0\\config\\zookeeper.properties",
      "example": "kafz"
    },
    {
      "command": "kafka-server-start",
      "desc": "Start Kafka",
      "shortcut": "kafs",
      "code": "kafka-server-start.bat C:\\Apps\\kafka_2.13-3.7.0\\config\\server.properties",
      "example": "kafs"
    }
  ]
}